{
    "identifier": "com.eneroth",
    "name": "Parinfer",
    "organization": "Backminds",
    "description": "This is an experimental Parinfer plugin for Nova, based on parinfer-rust. It has many, many flaws, and should be considered unstable.",
    "version": "0.🐙",
    "categories": ["completions"],

    "main": "index.js",

    "activationEvents": [
        "onLanguage:clj",
        "onLanguage:cljs",
        "onLanguage:cljc",
        "onLanguage:edn"
    ],

    "entitlements": {
        "filesystem": "readonly"
    },
}
